^C:\DOCUMENTS AND SETTINGS\СТУДЕНТ\МОИ ДОКУМЕНТЫ\VISUAL STUDIO 2010\PROJECTS\WINDOWSFORMSAPPLICATION3\WINDOWSFORMSAPPLICATION3\FORM1.RESX|C:\DOCUMENTS AND SETTINGS\СТУДЕНТ\МОИ ДОКУМЕНТЫ\VISUAL STUDIO 2010\PROJECTS\WINDOWSFORMSAPPLICATION3\WINDOWSFORMSAPPLICATION3\PROPERTIES\RESOURCES.RESX
C:\DOCUMENTS AND SETTINGS\студент\мои документы\VISUAL STUDIO 2010\PROJECTS\WINDOWSFORMSAPPLICATION3\WINDOWSFORMSAPPLICATION3\OBJ\X86\DEBUG\WINDOWSFORMSAPPLICATION3.FORM1.RESOURCES
C:\DOCUMENTS AND SETTINGS\студент\мои документы\VISUAL STUDIO 2010\PROJECTS\WINDOWSFORMSAPPLICATION3\WINDOWSFORMSAPPLICATION3\OBJ\X86\DEBUG\WINDOWSFORMSAPPLICATION3.PROPERTIES.RESOURCES.RESOURCES
